{"frames": {

"1pipe_01.png":
{
	"frame": {"x":0,"y":0,"w":176,"h":176},
	"rotated": false,
	"trimmed": false,
	"spriteSourceSize": {"x":0,"y":0,"w":176,"h":176},
	"sourceSize": {"w":176,"h":176}
},
"1pipe_02.png":
{
	"frame": {"x":176,"y":0,"w":176,"h":176},
	"rotated": false,
	"trimmed": false,
	"spriteSourceSize": {"x":0,"y":0,"w":176,"h":176},
	"sourceSize": {"w":176,"h":176}
},
"1pipe_03.png":
{
	"frame": {"x":352,"y":0,"w":176,"h":176},
	"rotated": false,
	"trimmed": false,
	"spriteSourceSize": {"x":0,"y":0,"w":176,"h":176},
	"sourceSize": {"w":176,"h":176}
},
"1pipe_04.png":
{
	"frame": {"x":528,"y":0,"w":176,"h":176},
	"rotated": false,
	"trimmed": false,
	"spriteSourceSize": {"x":0,"y":0,"w":176,"h":176},
	"sourceSize": {"w":176,"h":176}
},
"1pipe_flip_01.png":
{
	"frame": {"x":704,"y":0,"w":176,"h":176},
	"rotated": false,
	"trimmed": false,
	"spriteSourceSize": {"x":0,"y":0,"w":176,"h":176},
	"sourceSize": {"w":176,"h":176}
},
"1pipe_flip_02.png":
{
	"frame": {"x":880,"y":0,"w":176,"h":176},
	"rotated": false,
	"trimmed": false,
	"spriteSourceSize": {"x":0,"y":0,"w":176,"h":176},
	"sourceSize": {"w":176,"h":176}
},
"1pipe_flip_03.png":
{
	"frame": {"x":1056,"y":0,"w":176,"h":176},
	"rotated": false,
	"trimmed": false,
	"spriteSourceSize": {"x":0,"y":0,"w":176,"h":176},
	"sourceSize": {"w":176,"h":176}
},
"1pipe_flip_04.png":
{
	"frame": {"x":1232,"y":0,"w":176,"h":176},
	"rotated": false,
	"trimmed": false,
	"spriteSourceSize": {"x":0,"y":0,"w":176,"h":176},
	"sourceSize": {"w":176,"h":176}
},
"2pipe_01.png":
{
	"frame": {"x":1408,"y":0,"w":176,"h":176},
	"rotated": false,
	"trimmed": false,
	"spriteSourceSize": {"x":0,"y":0,"w":176,"h":176},
	"sourceSize": {"w":176,"h":176}
},
"2pipe_02.png":
{
	"frame": {"x":1584,"y":0,"w":176,"h":176},
	"rotated": false,
	"trimmed": false,
	"spriteSourceSize": {"x":0,"y":0,"w":176,"h":176},
	"sourceSize": {"w":176,"h":176}
},
"2pipe_03.png":
{
	"frame": {"x":1760,"y":0,"w":176,"h":176},
	"rotated": false,
	"trimmed": false,
	"spriteSourceSize": {"x":0,"y":0,"w":176,"h":176},
	"sourceSize": {"w":176,"h":176}
},
"2pipe_04.png":
{
	"frame": {"x":0,"y":176,"w":176,"h":176},
	"rotated": false,
	"trimmed": false,
	"spriteSourceSize": {"x":0,"y":0,"w":176,"h":176},
	"sourceSize": {"w":176,"h":176}
},
"2pipe_flip_01.png":
{
	"frame": {"x":176,"y":176,"w":176,"h":176},
	"rotated": false,
	"trimmed": false,
	"spriteSourceSize": {"x":0,"y":0,"w":176,"h":176},
	"sourceSize": {"w":176,"h":176}
},
"2pipe_flip_02.png":
{
	"frame": {"x":352,"y":176,"w":176,"h":176},
	"rotated": false,
	"trimmed": false,
	"spriteSourceSize": {"x":0,"y":0,"w":176,"h":176},
	"sourceSize": {"w":176,"h":176}
},
"2pipe_flip_03.png":
{
	"frame": {"x":528,"y":176,"w":176,"h":176},
	"rotated": false,
	"trimmed": false,
	"spriteSourceSize": {"x":0,"y":0,"w":176,"h":176},
	"sourceSize": {"w":176,"h":176}
},
"2pipe_flip_04.png":
{
	"frame": {"x":704,"y":176,"w":176,"h":176},
	"rotated": false,
	"trimmed": false,
	"spriteSourceSize": {"x":0,"y":0,"w":176,"h":176},
	"sourceSize": {"w":176,"h":176}
},
"3pipe_01.png":
{
	"frame": {"x":880,"y":176,"w":176,"h":176},
	"rotated": false,
	"trimmed": false,
	"spriteSourceSize": {"x":0,"y":0,"w":176,"h":176},
	"sourceSize": {"w":176,"h":176}
},
"3pipe_02.png":
{
	"frame": {"x":1056,"y":176,"w":176,"h":176},
	"rotated": false,
	"trimmed": false,
	"spriteSourceSize": {"x":0,"y":0,"w":176,"h":176},
	"sourceSize": {"w":176,"h":176}
},
"3pipe_03.png":
{
	"frame": {"x":1232,"y":176,"w":176,"h":176},
	"rotated": false,
	"trimmed": false,
	"spriteSourceSize": {"x":0,"y":0,"w":176,"h":176},
	"sourceSize": {"w":176,"h":176}
},
"3pipe_04.png":
{
	"frame": {"x":1408,"y":176,"w":176,"h":176},
	"rotated": false,
	"trimmed": false,
	"spriteSourceSize": {"x":0,"y":0,"w":176,"h":176},
	"sourceSize": {"w":176,"h":176}
},
"3pipe_flip_01.png":
{
	"frame": {"x":1584,"y":176,"w":176,"h":176},
	"rotated": false,
	"trimmed": false,
	"spriteSourceSize": {"x":0,"y":0,"w":176,"h":176},
	"sourceSize": {"w":176,"h":176}
},
"3pipe_flip_02.png":
{
	"frame": {"x":1760,"y":176,"w":176,"h":176},
	"rotated": false,
	"trimmed": false,
	"spriteSourceSize": {"x":0,"y":0,"w":176,"h":176},
	"sourceSize": {"w":176,"h":176}
},
"3pipe_flip_03.png":
{
	"frame": {"x":0,"y":352,"w":176,"h":176},
	"rotated": false,
	"trimmed": false,
	"spriteSourceSize": {"x":0,"y":0,"w":176,"h":176},
	"sourceSize": {"w":176,"h":176}
},
"3pipe_flip_04.png":
{
	"frame": {"x":176,"y":352,"w":176,"h":176},
	"rotated": false,
	"trimmed": false,
	"spriteSourceSize": {"x":0,"y":0,"w":176,"h":176},
	"sourceSize": {"w":176,"h":176}
},
"4pipe_01.png":
{
	"frame": {"x":352,"y":352,"w":176,"h":176},
	"rotated": false,
	"trimmed": false,
	"spriteSourceSize": {"x":0,"y":0,"w":176,"h":176},
	"sourceSize": {"w":176,"h":176}
},
"4pipe_02.png":
{
	"frame": {"x":528,"y":352,"w":176,"h":176},
	"rotated": false,
	"trimmed": false,
	"spriteSourceSize": {"x":0,"y":0,"w":176,"h":176},
	"sourceSize": {"w":176,"h":176}
},
"4pipe_03.png":
{
	"frame": {"x":704,"y":352,"w":176,"h":176},
	"rotated": false,
	"trimmed": false,
	"spriteSourceSize": {"x":0,"y":0,"w":176,"h":176},
	"sourceSize": {"w":176,"h":176}
},
"4pipe_04.png":
{
	"frame": {"x":880,"y":352,"w":176,"h":176},
	"rotated": false,
	"trimmed": false,
	"spriteSourceSize": {"x":0,"y":0,"w":176,"h":176},
	"sourceSize": {"w":176,"h":176}
},
"4pipe_flip_01.png":
{
	"frame": {"x":1056,"y":352,"w":176,"h":176},
	"rotated": false,
	"trimmed": false,
	"spriteSourceSize": {"x":0,"y":0,"w":176,"h":176},
	"sourceSize": {"w":176,"h":176}
},
"4pipe_flip_02.png":
{
	"frame": {"x":1232,"y":352,"w":176,"h":176},
	"rotated": false,
	"trimmed": false,
	"spriteSourceSize": {"x":0,"y":0,"w":176,"h":176},
	"sourceSize": {"w":176,"h":176}
},
"4pipe_flip_03.png":
{
	"frame": {"x":1408,"y":352,"w":176,"h":176},
	"rotated": false,
	"trimmed": false,
	"spriteSourceSize": {"x":0,"y":0,"w":176,"h":176},
	"sourceSize": {"w":176,"h":176}
},
"4pipe_flip_04.png":
{
	"frame": {"x":1584,"y":352,"w":176,"h":176},
	"rotated": false,
	"trimmed": false,
	"spriteSourceSize": {"x":0,"y":0,"w":176,"h":176},
	"sourceSize": {"w":176,"h":176}
}},
"animations": {
	"1pipe": ["1pipe_01.png","1pipe_02.png","1pipe_03.png","1pipe_04.png"],
	"1pipe_flip": ["1pipe_flip_01.png","1pipe_flip_02.png","1pipe_flip_03.png","1pipe_flip_04.png"],
	"2pipe": ["2pipe_01.png","2pipe_02.png","2pipe_03.png","2pipe_04.png"],
	"2pipe_flip": ["2pipe_flip_01.png","2pipe_flip_02.png","2pipe_flip_03.png","2pipe_flip_04.png"],
	"3pipe": ["3pipe_01.png","3pipe_02.png","3pipe_03.png","3pipe_04.png"],
	"3pipe_flip": ["3pipe_flip_01.png","3pipe_flip_02.png","3pipe_flip_03.png","3pipe_flip_04.png"],
	"4pipe": ["4pipe_01.png","4pipe_02.png","4pipe_03.png","4pipe_04.png"],
	"4pipe_flip": ["4pipe_flip_01.png","4pipe_flip_02.png","4pipe_flip_03.png","4pipe_flip_04.png"]
},
"meta": {
	"app": "https://www.codeandweb.com/texturepacker",
	"version": "1.0",
	"image": "pipes_final.png",
	"format": "RGBA8888",
	"size": {"w":1936,"h":528},
	"scale": "1",
	"smartupdate": "$TexturePacker:SmartUpdate:60d1b75c13b7cb0c6b04b4caebf9ae4a:d3795bf536a7935a7882368b7ef493a3:dc3892097febfde01987158b86fecf6a$"
}
}
